[
    {
        "infoList": {
            "id": 8877,
            "langAgnosticId": "1001001",
            "lastEditTimestampUsec": 1517967286811381,
            "background": {},
            "translates": {
                "zh-cn": {
                    "title": "\u4e3b\u98df"
                },
                "en": {
                    "title": "Main Courses"
                }
            },
            "infoPageIds": [
                9581,
                9582
            ]
        },
        "pageType": "infoList"
    },
    {
        "infoList": {
            "id": 8911,
            "langAgnosticId": "1001002",
            "lastEditTimestampUsec": 1517967241438796,
            "background": {},
            "translates": {
                "zh-cn": {
                    "title": "\u751c\u70b9"
                },
                "en": {
                    "title": "Desserts"
                }
            },
            "infoPageIds": [
                9492
            ]
        },
        "pageType": "infoList"
    },
    {
        "infoList": {
            "id": 8912,
            "langAgnosticId": "1001003",
            "lastEditTimestampUsec": 1512958743376294,
            "background": {},
            "translates": {
                "zh-cn": {
                    "title": "\u9152\u7c7b"
                },
                "en": {
                    "title": "Wine"
                }
            },
            "infoPageIds": [
                9493
            ]
        },
        "pageType": "infoList"
    },
    {
        "infoList": {
            "id": 8914,
            "langAgnosticId": "1001005",
            "lastEditTimestampUsec": 1517967279497888,
            "background": {},
            "translates": {
                "zh-cn": {
                    "title": "\u8f6f\u996e"
                },
                "en": {
                    "title": "Cocktail"
                }
            },
            "infoPageIds": [
                9494
            ]
        },
        "pageType": "infoList"
    }
]