{
    "ret": 200,
    "data": [
        {
            "id": "607",
            "merchandise_lang_agnostic_id": "41105",
            "unit_price_in_mill": "1000",
            "price_in_mill": "1000",
            "quantity": "1",
            "variants": "null",
            "note": null,
            "room_id": "101",
            "status": "0",
            "translates": {
                "zh-cn": {
                    "title": "鲜虾芝士焗饭",
                    "description": "鲜虾芝士焗饭",
                    "optionTranslations": {}
                },
                "en": {
                    "title": "Fresh Shrimp Cheese Gratin",
                    "description": "Fresh shrimp cheese gratin",
                    "optionTranslations": {}
                }
            },
            "defaultImage": 131,
            "page_id": 9570
        },
        {
            "id": "606",
            "merchandise_lang_agnostic_id": "41103",
            "unit_price_in_mill": "58000",
            "price_in_mill": "58000",
            "quantity": "1",
            "variants": "[\"1797\"]",
            "note": null,
            "room_id": "101",
            "status": "0",
            "translates": {
                "zh-cn": {
                    "title": "香煎牛仔骨",
                    "description": "牛仔骨又称牛小排,指的是牛的胸肋骨部位，牛排中含有人体所需且自身无法合成自制的8种氨基酸，营养丰富，价值极高。",
                    "additionalMessages": [
                        {
                            "title": "牛仔骨",
                            "message": "牛仔骨又称牛小排,指的是牛的胸肋骨部位，牛排中含有人体所需且自身无法合成自制的8种氨基酸，营养丰富，价值极高。"
                        }
                    ],
                    "optionTranslations": {
                        "translations": {
                            "1794": "烹饪",
                            "1795": "三分熟",
                            "1796": "五分熟",
                            "1797": "七分熟",
                            "1798": "全熟"
                        }
                    }
                },
                "en": {
                    "title": "Fried Cowboy Bone",
                    "description": "The cowboy bone is also known as a small platoon, which refers to the ribs of the cow. The steak contains eight amino acids that the body needs and cannot make itself, which is rich in nutrition and high value.",
                    "additionalMessages": [
                        {
                            "title": "Fried cowboy bone",
                            "message": "The cowboy bone is also known as a small platoon, which refers to the ribs of the cow. The steak contains eight amino acids that the body needs and cannot make itself, which is rich in nutrition and high value."
                        }
                    ],
                    "optionTranslations": {
                        "translations": {
                            "1794": "烹饪",
                            "1795": "三分熟",
                            "1796": "五分熟",
                            "1797": "七分熟",
                            "1798": "全熟"
                        }
                    }
                }
            },
            "defaultImage": 105,
            "page_id": 9568
        },
        {
            "id": "605",
            "merchandise_lang_agnostic_id": "41102",
            "unit_price_in_mill": "68000",
            "price_in_mill": "68000",
            "quantity": "1",
            "variants": "null",
            "note": null,
            "room_id": "101",
            "status": "0",
            "translates": {
                "zh-cn": {
                    "title": "香煎三文鱼",
                    "description": "三文鱼是世界名贵鱼类之一。鳞小刺少，肉色橙红，肉质细嫩鲜美，口感爽滑，既可直接生食，又能烹制菜肴，是深受人们喜爱的鱼类。",
                    "additionalMessages": [
                        {
                            "title": "三文鱼",
                            "message": "三文鱼是世界名贵鱼类之一。鳞小刺少，肉色橙红，肉质细嫩鲜美，口感爽滑，既可直接生食，又能烹制菜肴，是深受人们喜爱的鱼类。"
                        }
                    ],
                    "optionTranslations": {}
                },
                "en": {
                    "title": "Fried Salmon",
                    "description": "Salmon is one of the world's most valuable fish.Small scales and small spines, the flesh is orange red, the flesh is delicate and delicious, the taste is smooth, can both direct raw food, and can cook the dish, is the fish that is loved by people.\r\nSalmon is one of the world's most valuable fish.Small scales and small spines, the flesh is orange red, the flesh is delicate and delicious, the taste is smooth, can both direct raw food, and can cook the dish, is the",
                    "additionalMessages": [
                        {
                            "title": "Fried salmon",
                            "message": "Salmon is one of the world's most valuable fish.Small scales and small spines, the flesh is orange red, the flesh is delicate and delicious, the taste is smooth, can both direct raw food, and can cook the dish, is the fish that is loved by people."
                        }
                    ],
                    "optionTranslations": {}
                }
            },
            "defaultImage": 46,
            "page_id": 9567
        }
    ],
    "msg": ""
}